[
  {
    "sqlId": "c99yw1xkb4f1u",
    "timesTamp": "2018-03-19 22:19:49.0",
    "operation": "SELECT STATEMENT",
    "objectName": null,
    "objectType": null,
    "cost": "3",
    "cardinality": null,
    "cpuCost": null,
    "ioCost": null
  },
  {
    "sqlId": "c99yw1xkb4f1u",
    "timesTamp": "2018-03-19 22:19:49.0",
    "operation": "TABLE ACCESS",
    "objectName": "TEST",
    "objectType": "TABLE",
    "cost": "3",
    "cardinality": "1",
    "cpuCost": "35607",
    "ioCost": "3"
  }
]